TILL FILE
---
Event: Week 4 - Manhattan
Access price: $0 Non-Access price: $0
----
($)	+/-	Desc
0	+0	Float
0	+0	Access: 712201
0	+0	Access: 811294
0	+0	Access: 929043
0	+0	Access: 818644
0	+0	Access: 748286
0	+0	Access: 736078
0	+0	Access: 994805
0	+0	Access: 971394
0	+0	Access: 731813
0	+0	Access: 738973
0	+0	Access: 739567
0	+0	Access: 977075
0	+0	Access: 743823
0	+0	Access: 845961
0	+0	Access: 926936
0	+0	Access: 976771
0	+0	Access: 725874
0	+0	Access: 707375
0	+0	Access: 911536
0	+0	Access: 735675
0	+0	Access: 935341
0	+0	Access: 734913
0	+0	Access: 733770
0	+0	Access: 733688
0	+0	Access: 766655
0	+0	Access: 818200
0	+0	Access: 821569
0	+0	Access: 821569
0	+0	Access: 975156
0	+0	Access: 975255
0	+0	Access: 805651
0	+0	Access: 735330
